…
    Arguments

      data.sheet
      path to the *_LTRpred_DataSheet.csv file.

    Examples

# example prediction file generated by LTRpred 
pred.file <- system.file("Athaliana_TAIR10_chr_all_LTRpred_DataSheet.csv", package = "LTRpred")
# read LTRpred generated prediction file (data sheet)
pred <- read.ltrpred(pred.file)

# or arrange by ltr_similarity
dplyr::arrange(tidy.datasheet(pred), dplyr::desc(ltr_similarity))
#> # A tibble: 458 x 73
#>    ID           chromosome  start    end strand dfam_target_name dfam_acc width
#>    <chr>        <chr>       <int>  <int> <chr>  <chr>            <chr>    <int>
#>  1 Athaliana_L… 1          3.78e6 3.79e6 +      <NA>             <NA>      4956
#>  2 Athaliana_L… 1          6.54e6 6.54e6 -      <NA>             <NA>      5119
#>  3 Athaliana_L… 2          2.90e6 2.91e6 +      <NA>             <NA>      4788
#>  4 Athaliana_L… 3          1.10e7 1.10e7 +      <NA>             <NA>      4694
#>  5 Athaliana_L… 3          1.17e7 1.17e7 +      <NA>             <NA>      5047
#>  6 Athaliana_L… 3          1.17e7 1.17e7 +      <NA>             <NA>      4819
#>  7 Athaliana_L… 3          2.27e7 2.27e7 -      <NA>             <NA>      4956
#>  8 Athaliana_L… 4          2.19e6 2.19e6 +      <NA>             <NA>      5337
#>  9 Athaliana_L… 5          4.21e6 4.21e6 -      <NA>             <NA>      5002
#> 10 Athaliana_L… 5          1.81e7 1.81e7 -      <NA>             <NA>      4742
#> # ... with 448 more rows, and 65 more variables: ltr_similarity <dbl>,
#> #   orfs <int>, protein_domain <chr>, Clust_Cluster <chr>, Clust_Target <chr>,
#> #   Clust_Perc_Ident <dbl>, Clust_cn <int>, cn_3ltr <dbl>, cn_5ltr <dbl>,
#> #   lLTR_start <int>, lLTR_end <int>, lLTR_length <int>, rLTR_start <int>,
#> #   rLTR_end <int>, rLTR_length <int>, lTSD_start <int>, lTSD_end <int>,
#> #   lTSD_motif <chr>, rTSD_start <int>, rTSD_end <int>, rTSD_motif <chr>,
#> #   PPT_start <int>, PPT_end <int>, PPT_motif <chr>, PPT_strand <chr>,
#> #   PPT_offset <int>, PBS_start <int>, PBS_end <int>, PBS_strand <chr>,
#> #   tRNA <chr>, tRNA_motif <chr>, PBS_offset <int>, tRNA_offset <int>,
…
